('D:\\PY_Projects\\build\\web_crawler\\web_crawler.pkg',
 {'BINARY': 1,
  'DATA': 1,
  'EXECUTABLE': 1,
  'EXTENSION': 1,
  'PYMODULE': 1,
  'PYSOURCE': 1,
  'PYZ': 0,
  'SPLASH': 1},
 [('PYZ-00.pyz', 'D:\\PY_Projects\\build\\web_crawler\\PYZ-00.pyz', 'PYZ'),
  ('struct',
   'C:\\Users\\wweeqq\\AppData\\Local\\Programs\\Python\\Python39\\lib\\struct.pyo',
   'PYMODULE'),
  ('pyimod01_os_path',
   'D:\\PY_Projects\\crawler_Learns\\lib\\site-packages\\PyInstaller\\loader\\pyimod01_os_path.pyc',
   'PYMODULE'),
  ('pyimod02_archive',
   'D:\\PY_Projects\\crawler_Learns\\lib\\site-packages\\PyInstaller\\loader\\pyimod02_archive.pyc',
   'PYMODULE'),
  ('pyimod03_importers',
   'D:\\PY_Projects\\crawler_Learns\\lib\\site-packages\\PyInstaller\\loader\\pyimod03_importers.pyc',
   'PYMODULE'),
  ('pyimod04_ctypes',
   'D:\\PY_Projects\\crawler_Learns\\lib\\site-packages\\PyInstaller\\loader\\pyimod04_ctypes.pyc',
   'PYMODULE'),
  ('pyiboot01_bootstrap',
   'D:\\PY_Projects\\crawler_Learns\\lib\\site-packages\\PyInstaller\\loader\\pyiboot01_bootstrap.py',
   'PYSOURCE'),
  ('pyi_rth_subprocess',
   'D:\\PY_Projects\\crawler_Learns\\Lib\\site-packages\\PyInstaller\\hooks\\rthooks\\pyi_rth_subprocess.py',
   'PYSOURCE'),
  ('pyi_rth_multiprocessing',
   'D:\\PY_Projects\\crawler_Learns\\Lib\\site-packages\\PyInstaller\\hooks\\rthooks\\pyi_rth_multiprocessing.py',
   'PYSOURCE'),
  ('pyi_rth_pkgutil',
   'D:\\PY_Projects\\crawler_Learns\\Lib\\site-packages\\PyInstaller\\hooks\\rthooks\\pyi_rth_pkgutil.py',
   'PYSOURCE'),
  ('pyi_rth_inspect',
   'D:\\PY_Projects\\crawler_Learns\\Lib\\site-packages\\PyInstaller\\hooks\\rthooks\\pyi_rth_inspect.py',
   'PYSOURCE'),
  ('web_crawler',
   'D:\\PY_Projects\\crawler_Learns\\Chapter_2\\5_MovieWebsite_EX\\web_crawler.py',
   'PYSOURCE'),
  ('VCRUNTIME140.dll',
   'C:\\Users\\wweeqq\\AppData\\Local\\Programs\\Python\\Python39\\VCRUNTIME140.dll',
   'BINARY'),
  ('python39.dll',
   'C:\\Users\\wweeqq\\AppData\\Local\\Programs\\Python\\Python39\\python39.dll',
   'BINARY'),
  ('_decimal',
   'C:\\Users\\wweeqq\\AppData\\Local\\Programs\\Python\\Python39\\DLLs\\_decimal.pyd',
   'EXTENSION'),
  ('_hashlib',
   'C:\\Users\\wweeqq\\AppData\\Local\\Programs\\Python\\Python39\\DLLs\\_hashlib.pyd',
   'EXTENSION'),
  ('_lzma',
   'C:\\Users\\wweeqq\\AppData\\Local\\Programs\\Python\\Python39\\DLLs\\_lzma.pyd',
   'EXTENSION'),
  ('_bz2',
   'C:\\Users\\wweeqq\\AppData\\Local\\Programs\\Python\\Python39\\DLLs\\_bz2.pyd',
   'EXTENSION'),
  ('select',
   'C:\\Users\\wweeqq\\AppData\\Local\\Programs\\Python\\Python39\\DLLs\\select.pyd',
   'EXTENSION'),
  ('_socket',
   'C:\\Users\\wweeqq\\AppData\\Local\\Programs\\Python\\Python39\\DLLs\\_socket.pyd',
   'EXTENSION'),
  ('_multiprocessing',
   'C:\\Users\\wweeqq\\AppData\\Local\\Programs\\Python\\Python39\\DLLs\\_multiprocessing.pyd',
   'EXTENSION'),
  ('pyexpat',
   'C:\\Users\\wweeqq\\AppData\\Local\\Programs\\Python\\Python39\\DLLs\\pyexpat.pyd',
   'EXTENSION'),
  ('_ssl',
   'C:\\Users\\wweeqq\\AppData\\Local\\Programs\\Python\\Python39\\DLLs\\_ssl.pyd',
   'EXTENSION'),
  ('_ctypes',
   'C:\\Users\\wweeqq\\AppData\\Local\\Programs\\Python\\Python39\\DLLs\\_ctypes.pyd',
   'EXTENSION'),
  ('_queue',
   'C:\\Users\\wweeqq\\AppData\\Local\\Programs\\Python\\Python39\\DLLs\\_queue.pyd',
   'EXTENSION'),
  ('unicodedata',
   'C:\\Users\\wweeqq\\AppData\\Local\\Programs\\Python\\Python39\\DLLs\\unicodedata.pyd',
   'EXTENSION'),
  ('libcrypto-1_1.dll',
   'C:\\Users\\wweeqq\\AppData\\Local\\Programs\\Python\\Python39\\DLLs\\libcrypto-1_1.dll',
   'BINARY'),
  ('libssl-1_1.dll',
   'C:\\Users\\wweeqq\\AppData\\Local\\Programs\\Python\\Python39\\DLLs\\libssl-1_1.dll',
   'BINARY'),
  ('libffi-7.dll',
   'C:\\Users\\wweeqq\\AppData\\Local\\Programs\\Python\\Python39\\DLLs\\libffi-7.dll',
   'BINARY'),
  ('base_library.zip',
   'D:\\PY_Projects\\build\\web_crawler\\base_library.zip',
   'DATA'),
  ('certifi\\cacert.pem',
   'D:\\PY_Projects\\crawler_Learns\\lib\\site-packages\\certifi\\cacert.pem',
   'DATA'),
  ('certifi\\py.typed',
   'D:\\PY_Projects\\crawler_Learns\\lib\\site-packages\\certifi\\py.typed',
   'DATA')],
 False,
 False,
 False,
 [],
 None,
 None,
 None)
